{"items":[{"name":"Toxicology","id":"86890a52-c6d2-48e5-ba48-6f13ba220fdf","description":"","is_saved":false,"arabic":"علم السموم","kurdish":"ژەهر زانی","barcode":null,"is_favorite":false},{"name":"Fowl tick","id":"b5bd5c82-f74c-4e2e-a006-1ba89d126f88","description":"","is_saved":false,"arabic":"قراد الطيور","kurdish":"گەنەی باڵندە","barcode":null,"is_favorite":false},{"name":"Growthy","id":"bc8c2755-0fc4-4f57-81a7-c08523260045","description":"","is_saved":false,"arabic":"نامي","kurdish":"گەشەکردوو","barcode":null,"is_favorite":false},{"name":"Hog deer","id":"ff6131a0-3f31-49e5-aa89-8c86e2f46ac8","description":"","is_saved":false,"arabic":"غزال الهندي","kurdish":"ئاسکی هندی","barcode":null,"is_favorite":false},{"name":"Deglutition","id":"3a567e16-179f-47f5-befa-63614ffa07f2","description":"زاراوەیەکی زانستیە ئاماژەیە بۆ گواستنەوەی خۆراک لە دەمەوە بۆ گەدە","is_saved":false,"arabic":"إبتلاع","kurdish":"قوت دان","barcode":null,"is_favorite":false},{"name":"Langur","id":"52326c5d-e177-4d19-8cf6-9225a269be1c","description":"","is_saved":false,"arabic":"نوع من القرود","kurdish":"جۆرێک لە مەیموون","barcode":null,"is_favorite":false},{"name":"Radiation","id":"a8d3e45c-9d39-4989-9937-279adb318848","description":"","is_saved":false,"arabic":"أشعاع","kurdish":"تیشکدان","barcode":null,"is_favorite":false},{"name":"Haematorrhoea","id":"cdd1b857-99e3-442e-8d18-8ba7e20cdae8","description":"","is_saved":false,"arabic":"نزيف حاد","kurdish":"خوێن بەربونی توند","barcode":null,"is_favorite":false},{"name":"Pyometra","id":"7e640109-8fd0-4568-88b7-ffc835bc0b5c","description":"","is_saved":false,"arabic":"تلقيح الرحم","kurdish":"بەکێمبوونی منداڵدان","barcode":null,"is_favorite":false},{"name":"Inhibition","id":"21d034ce-5a93-47f2-b589-e75f51ac40be","description":"","is_saved":false,"arabic":"تثبيط","kurdish":"قەدەغەکردن","barcode":null,"is_favorite":false},{"name":"Heart water","id":"0d67c9c2-fa13-4ee9-832e-d8c502e5ea22","description":"","is_saved":false,"arabic":"القلب المائي","kurdish":"دڵی ئاوی","barcode":null,"is_favorite":false},{"name":"Anorexia","id":"a8f79acf-0ff6-4dd7-87b7-42f76f37944f","description":"","is_saved":false,"arabic":"فقدان الشهية","kurdish":"نەمانی ئارەزووی خواردن","barcode":null,"is_favorite":false},{"name":"Hazy","id":"436a4118-e324-49cf-9659-b0f5afad58e3","description":"","is_saved":false,"arabic":"ضبابي","kurdish":"تەماوی","barcode":null,"is_favorite":false},{"name":"Opacity","id":"f86bab8c-9d98-4dfb-968c-17bc7519d800","description":"","is_saved":false,"arabic":"عتامة","kurdish":"لێڵی","barcode":null,"is_favorite":false},{"name":"Haematochezia","id":"3b5f166b-58db-4040-96da-d92362560fc8","description":"","is_saved":false,"arabic":"براز الدموي","kurdish":"خوێن لە پاشەڕۆدا","barcode":null,"is_favorite":false},{"name":"Myocardium","id":"84149917-86d7-436c-815a-15925af5eb90","description":"","is_saved":false,"arabic":" عضلة القلب","kurdish":"دڵەماسولکە","barcode":null,"is_favorite":false},{"name":"Aglutition","id":"e2cb4d6d-1fff-4ea8-adb3-0363e0abf4cd","description":"","is_saved":false,"arabic":"عدم القدرة علي الأبتلاع","kurdish":"قوتنەدانی خۆراک","barcode":null,"is_favorite":false},{"name":"Facial paralysis","id":"dadcdf52-2f06-4d50-964f-717f5aa1c52c","description":"","is_saved":false,"arabic":"شلل الوجه","kurdish":"ئیفلیجی دەم و چاو","barcode":null,"is_favorite":false},{"name":"Hyperthermia","id":"4f78c8a3-31f5-4d3e-b3fd-776c94901691","description":"","is_saved":false,"arabic":"","kurdish":"بەرزبوونەوەی پلەی گەرمی لەش بە شێوەیەکی سروشتی","barcode":null,"is_favorite":false},{"name":"Abyssinian cat","id":"6cd64e4f-75e6-40c1-b95e-a644e4233dc2","description":"","is_saved":false,"arabic":"نوع من القطط","kurdish":"جۆرێکە لە پشیلە","barcode":null,"is_favorite":false},{"name":"Nourish","id":"da1315d0-1c7c-4a68-be25-344d7de134f8","description":"","is_saved":false,"arabic":"غذي","kurdish":"خورادن پێدان","barcode":null,"is_favorite":false},{"name":"Aplasia","id":"c483ec00-472d-42e8-baa8-52ed84e460c3","description":"","is_saved":false,"arabic":"عدم التنسج","kurdish":"وەستانی گەشە","barcode":null,"is_favorite":false},{"name":"Enema","id":"a5cbeec4-b561-471b-9a45-19ff6af00c4d","description":"","is_saved":false,"arabic":"حقن شرجية ","kurdish":"حوقنەی کۆم","barcode":null,"is_favorite":false},{"name":"Aeroembolism","id":"9e1b2155-6738-49ff-b8cc-32409363b674","description":"","is_saved":false,"arabic":"إنسداد الاوعية الدموية بالهواء","kurdish":"گیرانی ملولەی خوێن بەهەوا","barcode":null,"is_favorite":false},{"name":"Heartache","id":"1d046a85-5f9f-4dc0-8813-5062169a44be","description":"","is_saved":false,"arabic":"ألم القلب","kurdish":"دڵئێشە","barcode":null,"is_favorite":false},{"name":"Oliguria","id":"96528a00-2b09-4f21-9097-9f90dd8c1688","description":"","is_saved":false,"arabic":"قلة البول","kurdish":"کەمی میز","barcode":null,"is_favorite":false},{"name":"Fasciola hepatica","id":"4dc9f9bc-afcf-4af8-8e63-c5e68dab4fe9","description":"","is_saved":false,"arabic":"فاشولا الكبد","kurdish":"کرمی جگەر","barcode":null,"is_favorite":false},{"name":"Local","id":"9d04c4f3-ca7d-48ef-bc38-37503a874b19","description":"","is_saved":false,"arabic":"موضعي","kurdish":"جێگەیی","barcode":null,"is_favorite":false},{"name":"Dry cough","id":"0234c85d-5408-46ee-af0c-7968784a71b1","description":"","is_saved":false,"arabic":"السعال الجاف","kurdish":"کۆکەی وشک","barcode":null,"is_favorite":false},{"name":"Duplication","id":"0a6930b4-9da6-4c4a-862a-1d160e241891","description":"","is_saved":false,"arabic":"تكرار","kurdish":"دوبارەکردن","barcode":null,"is_favorite":false},{"name":"Proteinuria","id":"d9b8b520-60cf-4aa7-bc77-b419f6b2678b","description":"","is_saved":false,"arabic":"بيلة بروتنيية","kurdish":"پڕۆتین لە میزدا","barcode":null,"is_favorite":false},{"name":"Unilateral","id":"51bdf738-42d9-4cb0-8e60-0db76f95f574","description":"","is_saved":false,"arabic":"من جانب واحد","kurdish":"لە یەک لاوە","barcode":null,"is_favorite":false},{"name":"Aneurysm","id":"ebc909ca-c8a2-40c1-9fd9-3382ed42ad83","description":"","is_saved":false,"arabic":"تكيس جدار الأوعيية","kurdish":"تورەکەی دیواری ملولەی خوێن","barcode":null,"is_favorite":false},{"name":"Desire","id":"655ecd92-8b87-4396-8804-7672a06f5064","description":"","is_saved":false,"arabic":"رغبة","kurdish":"خواست،ئارەزوو","barcode":null,"is_favorite":false},{"name":"Inoculation","id":"fe3f148c-9323-4bff-8223-a1ccab52977f","description":"","is_saved":false,"arabic":"تلقيح","kurdish":"کوتان","barcode":null,"is_favorite":false},{"name":"Coma","id":"c6e9605b-162c-4aca-b690-21422f55f62b","description":"","is_saved":false,"arabic":"إغماء","kurdish":"بێ هۆشی","barcode":null,"is_favorite":false},{"name":"Inert","id":"2ac0cc8f-dd0d-4395-8f13-8258fccb3924","description":"","is_saved":false,"arabic":"غير نشط","kurdish":"ناچالاک","barcode":null,"is_favorite":false},{"name":"Teat Canal","id":"f7361d54-b8cb-4540-968d-ee6e16adb22b","description":"","is_saved":false,"arabic":"قناة الحملة","kurdish":"کونی چڵی گوان","barcode":null,"is_favorite":false},{"name":"Abduction","id":"dcec23dc-a863-4c66-a54c-383e24915352","description":"","is_saved":false,"arabic":"مبعد","kurdish":"دورخستنەوە،لادان","barcode":null,"is_favorite":false},{"name":"Abaxis","id":"00e877fa-f1b1-4c70-a541-431a279f2130","description":"","is_saved":false,"arabic":"خارج المحور","kurdish":"لەتەوەرە لادان","barcode":null,"is_favorite":false},{"name":"Abdominal wall","id":"f66240fd-d198-4d52-b14f-39babd33298e","description":"","is_saved":false,"arabic":"جدار بطن","kurdish":"دیواری سک","barcode":null,"is_favorite":false},{"name":"Postpartum Period","id":"70212c5f-a373-4027-b895-b94b824527f5","description":"","is_saved":false,"arabic":"فترة ما بعد الولادة","kurdish":"ماوەی دوای لەدایک بوون","barcode":null,"is_favorite":false},{"name":"Abate","id":"74fb8830-8ea9-4308-8c9d-2d400beed0d3","description":"","is_saved":false,"arabic":"يخمد","kurdish":"کەمکردن","barcode":null,"is_favorite":false},{"name":"Listeriosis","id":"33058a5c-3ce3-4e74-bc8e-6fdf0889164b","description":"بۆیە وای پێدەوترێ چونکە یەکێک لە نیشانەکانی ئەوەیە بەردەوام سەری بەرەو ئاسمان بەرز دەکاتەوە.","is_saved":false,"arabic":"داء الليستريات","kurdish":"نەخۆشی ئەستێرەکان","barcode":null,"is_favorite":false},{"name":"Anbactereal","id":"6af777ac-d40d-4deb-af92-fa6e56ded60b","description":"","is_saved":false,"arabic":"غير جرثومي","kurdish":"بێ بەکتریایی","barcode":null,"is_favorite":false},{"name":"Peracute","id":"b06a1464-7d11-45b4-8271-407ef59b8a05","description":"","is_saved":false,"arabic":"فائق الحدة","kurdish":"سەروو تیژ-زۆر توند","barcode":null,"is_favorite":false},{"name":"Abasia","id":"165f3548-08c0-4beb-b7eb-2263ae8e3c9c","description":"","is_saved":false,"arabic":"اللاخطو","kurdish":"نەڕۆشتن-توانای ڕۆشتنی نەبێ","barcode":null,"is_favorite":false},{"name":"Sheep Shears","id":"e5c68a93-83a4-4e03-a3d1-f122740c9420","description":"جۆرە مقەستیکە بۆ بڕینی خوری مەڕ بەکاردی","is_saved":false,"arabic":"","kurdish":"چاری ، مقەستی خوری بڕین","barcode":null,"is_favorite":false},{"name":"Abdominal cavity","id":"8ef2e26b-db39-4beb-b8c2-1a71a54c5c5b","description":"","is_saved":false,"arabic":"جوف بطن","kurdish":"بۆشای سک","barcode":null,"is_favorite":false},{"name":"Silage","id":"34fb7e79-2d67-4d74-bc21-93dfbcce78aa","description":"خۆراکێکە بۆ مانگا بەکاردی بریتیە لە گیای تازە کە دەخریتە ناو چاڵیکەوە و دادەپۆشریت تاوەکوو تاوەکوو بترشێت و بۆ ماوەیەکی زۆر بمێنێتەوە و دواتر بەکار بهێنریت.\n\nئەمە جیاوازە لە وێنجە چونکە وێنجە هەر گیایەکی ٤ وەرزەیە بۆ ئاژەڵی گەورە بەکاردی پرۆتینی زۆری تیدایە بەس نەترشێندراوە گەر بیترشینن ئەوکات ئەبیت بە silage","is_saved":false,"arabic":"العلف المخمر، العلف المحفوظ","kurdish":"کەندوو،گرزە،شەوەر","barcode":null,"is_favorite":false},{"name":"Subacute","id":"1db37d39-310b-4a88-8b21-1c2f34b1e2e3","description":"بە بەراورد بە acute و peracute نیشانەکان کەمتر و هێواشترە","is_saved":false,"arabic":"تحت الحاد","kurdish":"ژێر تیژ","barcode":null,"is_favorite":false},{"name":"Absorption","id":"1e0a73e4-2069-455d-9ed8-ddef81a0ee30","description":"","is_saved":false,"arabic":"إمتصاص","kurdish":"مژین","barcode":null,"is_favorite":false},{"name":"Ruminal Stasis","id":"67216949-debd-4c4a-8674-de73be3479f0","description":"حاڵەتیکە کە خۆراک لە ناو ورگی ئاژەڵەکە ناجوڵیت بۆ نموونە لە گەدەوە ناڕواتە ڕیخۆڵە چونکە ورگی ئاژەڵەکە لەکار کەوتووە","is_saved":false,"arabic":"ركود الكرش","kurdish":"وەستانی کاری ورگ","barcode":null,"is_favorite":false},{"name":"Toxemia","id":"e059afc2-3a0a-4102-84b6-aab1f76d9595","description":"بڵاوبوونەوەی ژەهری بەکتریایە بە خوێندا","is_saved":false,"arabic":"إنسمام الدم - تسمم الدم","kurdish":"ژەهراویبوونی خوێن -","barcode":null,"is_favorite":false},{"name":"Infectious Keratoconjunctivitis(PINK EYE)","id":"37f89727-3a8e-4ee0-a25a-110bc90a56d3","description":"","is_saved":false,"arabic":"التهاب الملتحمة العدوائي - التهاب العين الساري","kurdish":"چاو ئێشە - چاوەشینکە - چاوشینکە","barcode":null,"is_favorite":false},{"name":"Hematogenous","id":"f73160ef-965b-4971-b83b-78a1cfbc8e82","description":"شتێک کە لە خوێنەوە سەرچاوەی گرتوە یان لە خوێندا هەڵدەگیرێت","is_saved":false,"arabic":"دموي المنشأ-دمي - مشتق الدم","kurdish":"خوێنەکی-لە خوێن وەرگیراو","barcode":null,"is_favorite":false},{"name":"Abatement","id":"ceb43e4a-b033-4fdc-8e85-7b743bb07ade","description":"","is_saved":false,"arabic":"خمود","kurdish":"ئازار کەمکردنەوە،ئازار سوکردن","barcode":null,"is_favorite":false},{"name":"Abduct","id":"f15b5d07-6cea-4fae-b681-08722926fcef","description":"","is_saved":false,"arabic":"يبعد","kurdish":"دوری دەخاتەوە،لای دەدا","barcode":null,"is_favorite":false},{"name":"Abortus","id":"4770aead-dedd-4b41-976b-73dedacbe6ce","description":"","is_saved":false,"arabic":"جهيض","kurdish":"لەبارچوو","barcode":null,"is_favorite":false},{"name":"Abrachia","id":"7c5305a4-878b-463c-8d68-1e6317b03887","description":"","is_saved":false,"arabic":"اللاعضدية","kurdish":"بێ قۆڵی","barcode":null,"is_favorite":false},{"name":"Abuse","id":"aa46e16d-a26b-45e6-91ba-1c83eaeb6956","description":"","is_saved":false,"arabic":"سوء الاستعمال","kurdish":"خراپ بەکارهێنان","barcode":null,"is_favorite":false},{"name":"Ache","id":"8f4543b8-7996-46f5-aee8-d3ac96c0490d","description":"","is_saved":false,"arabic":"وجع","kurdish":"ئێش،ئازار،ژان","barcode":null,"is_favorite":false},{"name":"Adjustment","id":"2918dff2-92e4-4f3a-b4bd-a0978a9927a3","description":"","is_saved":false,"arabic":"احكام","kurdish":"ڕێکخستن،سازکردن","barcode":null,"is_favorite":false},{"name":"Aditus","id":"f8e9c341-e9aa-489c-8d03-5dee4ac6b77f","description":"","is_saved":false,"arabic":"مدخل","kurdish":"دەرکە،دەرچە،گوزەر","barcode":null,"is_favorite":false},{"name":"Adventitia","id":"e3270569-0b6f-45bd-bdf6-3bae20f9686d","description":"","is_saved":false,"arabic":"البرانية","kurdish":"دەرەکێتی","barcode":null,"is_favorite":false},{"name":"Absolute","id":"98aecbcb-ba87-4997-8855-db1b0089b366","description":"","is_saved":false,"arabic":"مطلق","kurdish":"ڕەها،پەتی","barcode":null,"is_favorite":false},{"name":"Adsorption","id":"1ab24b04-c57a-4b53-b928-ee69fc7e482a","description":"","is_saved":false,"arabic":"إمتزاز","kurdish":"لکان-پێوەلکان،ڕوومژین","barcode":null,"is_favorite":false},{"name":"Acute","id":"a0c9310f-1685-4d5b-92e1-496b9ef8f795","description":"","is_saved":false,"arabic":"حاد","kurdish":"تیژ","barcode":null,"is_favorite":false},{"name":"Acetum","id":"fb53fe7f-372f-4031-84da-88c2b87fc174","description":"","is_saved":false,"arabic":"خل","kurdish":"سرکە","barcode":null,"is_favorite":false},{"name":"Abstract","id":"ccc0b1c5-a8cc-4fcd-827d-b3b2968211ca","description":"","is_saved":false,"arabic":"ملخص","kurdish":"کورتە،پوختە","barcode":null,"is_favorite":false},{"name":"Absorbent","id":"bf0ff4bc-b25b-492e-a7dc-20354394a25e","description":"","is_saved":false,"arabic":"ماص","kurdish":"مژۆک،مژەر","barcode":null,"is_favorite":false},{"name":"Adjacent","id":"3f566a05-5297-41f1-98d7-bcbaa341b594","description":"","is_saved":false,"arabic":"مجاور","kurdish":"نزیک،هاوسێ","barcode":null,"is_favorite":false},{"name":"Abcess _bile duct","id":"c4fe2bce-b4fa-42ed-a00b-3de53866e714","description":"","is_saved":false,"arabic":"خراج مجري الصفراء","kurdish":"دوومەڵی زەرداوە ڕۆ","barcode":null,"is_favorite":false},{"name":"Acidophil","id":"0e71a695-e1ff-40ff-a8d9-7134f00176fd","description":"","is_saved":false,"arabic":"حمضة","kurdish":"ترشخواز،زوو بەبۆیەی ترش ڕەنگ دەگرێت (میکرۆب )","barcode":null,"is_favorite":false},{"name":"Cheesy","id":"7efa79fb-f051-4b75-85cf-49f502740732","description":"","is_saved":false,"arabic":"جبني","kurdish":"پەنیری","barcode":null,"is_favorite":false},{"name":"Acidosis","id":"70404555-ff2c-4801-8165-97e2ce52996a","description":"","is_saved":false,"arabic":"حماض،تسمم بالحماض","kurdish":"خوێن ترشبوون","barcode":null,"is_favorite":false},{"name":"Afferent","id":"749ab376-3a30-44f5-a6df-944caa34559f","description":"","is_saved":false,"arabic":"واردــ مورد","kurdish":"هاوردە،هاتنە ناوە","barcode":null,"is_favorite":false},{"name":"Adjuvant","id":"c37185c5-6653-466e-b94e-5a9789bc8bcc","description":"","is_saved":false,"arabic":"مساعد","kurdish":"یاریدەدەر،یارمەتیدەر","barcode":null,"is_favorite":false},{"name":"Affinity","id":"c680da32-e3bd-4d96-abc2-d7ab6bc58e3f","description":"","is_saved":false,"arabic":"ألفة","kurdish":"هۆگری،یەکگرتن","barcode":null,"is_favorite":false},{"name":"Bandage","id":"ae8e427a-57a1-46bf-89a1-ec4d65141f25","description":"","is_saved":false,"arabic":"عصابة","kurdish":"پێچەرە","barcode":null,"is_favorite":false},{"name":"Ash","id":"df0cd038-6cf8-438e-abab-c79e54378b2c","description":"","is_saved":false,"arabic":"رماد","kurdish":"سووتوو،خۆڵەمێش","barcode":null,"is_favorite":false},{"name":"Anopia","id":"2c275257-fefc-468d-b14a-102ed9da7c2b","description":"","is_saved":false,"arabic":"عمى","kurdish":"کوێری","barcode":null,"is_favorite":false},{"name":"Asthma","id":"5dc2cf72-31eb-4114-bcda-031cc60910b1","description":"","is_saved":false,"arabic":"ربو","kurdish":"هەناسە تونگی،تەنگەنەفەسی","barcode":null,"is_favorite":false},{"name":"Ascites","id":"1169d0cb-0121-432b-8f45-e93df7fbd502","description":"","is_saved":false,"arabic":"حبن","kurdish":"ئاوبەند","barcode":null,"is_favorite":false},{"name":"bran","id":"e503c814-3f88-4d39-9550-b15e579b1410","description":"","is_saved":false,"arabic":"نخالة","kurdish":"کەپەک","barcode":null,"is_favorite":false},{"name":"Inheritance","id":"dd5c7e0d-990d-4e65-b25a-9f4da4ddd05a","description":"","is_saved":false,"arabic":"وراثة","kurdish":"بۆماوە","barcode":null,"is_favorite":false},{"name":"Angiogenesis","id":"cb666535-c3b0-4b00-a5ce-8f7bc733d68d","description":"","is_saved":false,"arabic":"تكون الأوعية الدموية","kurdish":"دروستبونی ملولەی خوێن","barcode":null,"is_favorite":false},{"name":"Rabies","id":"648e9cee-2fbd-4fcb-b5c4-9ec8cf9f4c16","description":"","is_saved":false,"arabic":"داء الكلب","kurdish":"هاری سەگ","barcode":null,"is_favorite":false},{"name":"Hepatectomy","id":"87b91c61-4b8a-4c61-afa1-4a400a8762bd","description":"","is_saved":false,"arabic":"إستئصال الكبد","kurdish":"لابردنی جگەر","barcode":null,"is_favorite":false},{"name":"Adrenaline","id":"6bcd7252-c9a3-4a7a-9255-c48156d01f9a","description":"هۆڕمۆنێکە دەردەدرێت لەلایەن ئەدریناڵ گلاندەوە بۆ زیادکردنی لێدانی دڵ و هەناسەدان","is_saved":false,"arabic":"أدرينالين","kurdish":"ئەدریناڵین","barcode":null,"is_favorite":false},{"name":"Haematopoiesis","id":"9c4ce1e2-4549-494d-a603-a203375cab14","description":"","is_saved":false,"arabic":"إنتاج الخلايا الدموية ","kurdish":"دروستبوونی خانەکانی خوێن","barcode":null,"is_favorite":false},{"name":"Fowl plague","id":"46369b28-3bec-4925-b9b3-f05661e68b3b","description":"","is_saved":false,"arabic":"طاعون الطيور","kurdish":"تاعونی باڵندە","barcode":null,"is_favorite":false},{"name":"Nocardiosis","id":"d788de25-0e4e-4e80-b965-1656daba5a72","description":"","is_saved":false,"arabic":"نوكارديوسز","kurdish":"نۆکاردیۆسز","barcode":null,"is_favorite":false},{"name":"Gasrtectomy","id":"f978ce41-8911-466f-a1b7-278fc5bb05a5","description":"","is_saved":false,"arabic":"إستئصال المعيدة ","kurdish":"لابردنی گەدە","barcode":null,"is_favorite":false},{"name":"Induction","id":"5698a3c0-e0c1-4f6e-837e-7ad51442deb1","description":"","is_saved":false,"arabic":"حث","kurdish":"هاندان","barcode":null,"is_favorite":false},{"name":"Congestion","id":"447269f9-6409-4f8f-a0c6-e02139c262a9","description":"بریتیە لە کەڵەکەبوونی شلە یان خوین لە ناوچەیەکی دیاریکراوی لەشدا، کە دەبێتە هۆی هەلئاوسان.","is_saved":false,"arabic":"إحتقان","kurdish":"هەڵئاوسان","barcode":null,"is_favorite":false},{"name":"Hepatorrhaphy","id":"4a8265d7-a647-4801-afb1-8d7ea63006b1","description":"","is_saved":false,"arabic":"خياطة الكبد","kurdish":"دورینەوەی جگەر","barcode":null,"is_favorite":false},{"name":"Case history","id":"4a3a106e-0d7b-46e8-864b-2e7ffd09eb68","description":"","is_saved":false,"arabic":"تاريخ الحالة","kurdish":"مێژووی کێشە","barcode":null,"is_favorite":false},{"name":"Haematobia","id":"b6007678-b8d5-465b-a9bd-be1c53744e5d","description":"","is_saved":false,"arabic":"نوع من الذبابة","kurdish":"جۆرێکە لە مێش","barcode":null,"is_favorite":false},{"name":"Mycotoxin","id":"a8114284-380f-49aa-b892-cb7727914b40","description":"","is_saved":false,"arabic":"سم الفطر","kurdish":"ژەهری کەڕوو","barcode":null,"is_favorite":false}],"total":2438,"page":1,"size":100,"pages":25}